,name,value
0,Scotland,249
1,England,759
2,Wales,27
3,Korea (South),11
4,Russia,4
5,Tanzania,143
6,St Lucia,6
7,Iran,7
8,Vietnam,20
9,Northern Ireland,19
10,Trinidad & Tobago,20
11,Palestine,8
12,Syria,2
13,Congo (DR),3
14,Bolivia,1
15,Macedonia,3
16,St Vincent,4
17,Lao PDR,1
18,British Virgin Isl.,3
19,Antigua & Barbuda,2
20,Brunei,1
21,St. Kitts-Nevis,1
22,Turks and Caicos,2
23,Africa (other),4
24,Europe (other),1
